{
  "project_info": {
    "project_number": "337045349533",
    "project_id": "to-do-list-app-e8d2e",
    "storage_bucket": "to-do-list-app-e8d2e.appspot.com"
  },
  "client": [
    {
      "client_info": {
        "mobilesdk_app_id": "1:337045349533:android:a7f9a2ed7332601dd6e074",
        "android_client_info": {
          "package_name": "com.example.to_do_list_app"
        }
      },
      "oauth_client": [
        {
          "client_id": "337045349533-2a81etn159fqu47ebbnes12s6qleomcq.apps.googleusercontent.com",
          "client_type": 3
        }
      ],
      "api_key": [
        {
          "current_key": "AIzaSyAQFdKuLscyqMtsgWt6uIdJ4MM0_dEQXBI"
        }
      ],
      "services": {
        "appinvite_service": {
          "other_platform_oauth_client": [
            {
              "client_id": "337045349533-2a81etn159fqu47ebbnes12s6qleomcq.apps.googleusercontent.com",
              "client_type": 3
            }
          ]
        }
      }
    }
  ],
  "configuration_version": "1"
}